id;film_id;language_id
823776a3-03b0-4756-96c5-ad79a676d124;bf5270ca-53c6-4087-b45f-165cc1f577ec;9b2ba536-d93a-4a3b-a3ee-dab6eaa96437
a24775f7-1fa2-46cc-aadc-e7c7ce7762f9;41e0f9e0-71bf-4617-b079-1a0d8c8166e0;c4279578-5d27-4180-b63c-51436c167914
17e1d174-a141-4a37-94ab-5d44e111e4f2;7df1a27c-4857-4397-a2e1-a1b0d9dbb096;ac608801-f579-432a-8b4a-3b723466e592
da1f7963-7375-4666-9936-5bdb03a40d75;66f57503-2327-4e70-bfef-c0e24754f098;7d4788aa-1e95-42a4-be13-76cced2f77bc
4d65f7a8-6286-4246-950d-790e4cbbd50a;19e0a3bc-3e93-4329-8bb7-7cfa2b65b9c2;180b2706-d4c3-4a02-ae0c-86330a0e443b
e15a4002-130b-43a3-851a-b569e9a96e2e;a678bbb5-0f31-4ad1-b062-03cd4a68910d;44ec5d6a-a233-4b8b-8670-178ae8c15a9a
42018e34-8723-4cbe-ae50-2acd2907f778;09bd4205-80f0-4073-a771-e75b6d1ad387;2f8140b1-e203-4fcd-b7f2-100d6850e336
47e63579-c554-4b35-8dfe-c9fe2c649716;f5279c44-fb6c-43f6-a9d3-338d22a38678;e4a09278-4c7f-4a07-9fea-d82f8853e16d
3236abb7-355f-4398-9180-3dcb5c3bde1f;7e6b95cb-aa75-4543-9da3-8be081b3e0f4;7e1e2e9b-d9c7-4031-8bef-1341e882f61c
28b025bb-d1c4-4c5f-a953-0988fe22f737;bf58411a-a06f-444e-9ffe-cb19bac27574;91f423ce-f33e-4a1f-856b-7cc059c8177d