id;name;phone;about;average_mark
f2f11475-f03d-426f-8bad-7ea6b74ac9ca;Master1;333-333;Bla bla bla;0
7747dd18-14d2-44f0-83a6-53a60116dc91;Master2;444-444;Boo boo boo;1
1c7ddfb8-d4e5-4d4b-8146-b53e65da92da;Master3;555-555;Oh oh ohh;2