id;customer_id;master_id;start_at;finish_at;status
76e5496c-2c0f-46cf-a266-10a79f95708f;05b435e9-d7fd-4c77-8ac4-9d37956517d0;f2f11475-f03d-426f-8bad-7ea6b74ac9ca;2020-02-07T12:00:00;2020-02-07T14:00:00;SCHEDULED
ee44f358-10ab-44d7-917f-a45394df8b66;5087ae56-4336-46d4-b66d-8ba01fca33d0;7747dd18-14d2-44f0-83a6-53a60116dc91;2020-02-07T13:00:00;null;SCHEDULED
d958aa1c-0a6e-4a66-86cc-1e3820b277fb;053959c6-9109-49a2-8556-3c3e304423b4;1c7ddfb8-d4e5-4d4b-8146-b53e65da92da;2020-02-07T14:00:00;2020-02-07T14:00:02;SCHEDULED